-- Merging decision tree log ---
manifest
ADDED from C:\Users\JCR\AndroidStudioProjects\AndroidPermissionManager\app\src\main\AndroidManifest.xml:2:1-32:12
	xmlns:android
		ADDED from C:\Users\JCR\AndroidStudioProjects\AndroidPermissionManager\app\src\main\AndroidManifest.xml:2:11-69
	package
		ADDED from C:\Users\JCR\AndroidStudioProjects\AndroidPermissionManager\app\src\main\AndroidManifest.xml:3:5-51
		INJECTED from C:\Users\JCR\AndroidStudioProjects\AndroidPermissionManager\app\src\main\AndroidManifest.xml
		INJECTED from C:\Users\JCR\AndroidStudioProjects\AndroidPermissionManager\app\src\main\AndroidManifest.xml
	android:versionName
		ADDED from C:\Users\JCR\AndroidStudioProjects\AndroidPermissionManager\app\src\main\AndroidManifest.xml:5:5-30
		INJECTED from C:\Users\JCR\AndroidStudioProjects\AndroidPermissionManager\app\src\main\AndroidManifest.xml
		INJECTED from C:\Users\JCR\AndroidStudioProjects\AndroidPermissionManager\app\src\main\AndroidManifest.xml
	android:versionCode
		ADDED from C:\Users\JCR\AndroidStudioProjects\AndroidPermissionManager\app\src\main\AndroidManifest.xml:4:5-28
		INJECTED from C:\Users\JCR\AndroidStudioProjects\AndroidPermissionManager\app\src\main\AndroidManifest.xml
		INJECTED from C:\Users\JCR\AndroidStudioProjects\AndroidPermissionManager\app\src\main\AndroidManifest.xml
uses-sdk
ADDED from C:\Users\JCR\AndroidStudioProjects\AndroidPermissionManager\app\src\main\AndroidManifest.xml:7:5-9:41
MERGED from [com.android.support:appcompat-v7:22.2.1] C:\Users\JCR\AndroidStudioProjects\AndroidPermissionManager\app\build\intermediates\exploded-aar\com.android.support\appcompat-v7\22.2.1\AndroidManifest.xml:20:5-43
MERGED from [com.android.support:support-v4:22.2.1] C:\Users\JCR\AndroidStudioProjects\AndroidPermissionManager\app\build\intermediates\exploded-aar\com.android.support\support-v4\22.2.1\AndroidManifest.xml:20:5-43
MERGED from [com.android.support:support-v4:22.2.1] C:\Users\JCR\AndroidStudioProjects\AndroidPermissionManager\app\build\intermediates\exploded-aar\com.android.support\support-v4\22.2.1\AndroidManifest.xml:20:5-43
	android:targetSdkVersion
		ADDED from C:\Users\JCR\AndroidStudioProjects\AndroidPermissionManager\app\src\main\AndroidManifest.xml:9:9-38
		INJECTED from C:\Users\JCR\AndroidStudioProjects\AndroidPermissionManager\app\src\main\AndroidManifest.xml
		INJECTED from C:\Users\JCR\AndroidStudioProjects\AndroidPermissionManager\app\src\main\AndroidManifest.xml
	android:minSdkVersion
		ADDED from C:\Users\JCR\AndroidStudioProjects\AndroidPermissionManager\app\src\main\AndroidManifest.xml:8:9-34
		INJECTED from C:\Users\JCR\AndroidStudioProjects\AndroidPermissionManager\app\src\main\AndroidManifest.xml
		INJECTED from C:\Users\JCR\AndroidStudioProjects\AndroidPermissionManager\app\src\main\AndroidManifest.xml
uses-permission#android.permission.INTERNET
ADDED from C:\Users\JCR\AndroidStudioProjects\AndroidPermissionManager\app\src\main\AndroidManifest.xml:10:2-64
	android:name
		ADDED from C:\Users\JCR\AndroidStudioProjects\AndroidPermissionManager\app\src\main\AndroidManifest.xml:10:19-61
uses-permission#android.permission.ACCESS_NETWORK_STATE
ADDED from C:\Users\JCR\AndroidStudioProjects\AndroidPermissionManager\app\src\main\AndroidManifest.xml:11:2-76
	android:name
		ADDED from C:\Users\JCR\AndroidStudioProjects\AndroidPermissionManager\app\src\main\AndroidManifest.xml:11:20-74
application
ADDED from C:\Users\JCR\AndroidStudioProjects\AndroidPermissionManager\app\src\main\AndroidManifest.xml:12:5-30:19
MERGED from [com.android.support:appcompat-v7:22.2.1] C:\Users\JCR\AndroidStudioProjects\AndroidPermissionManager\app\build\intermediates\exploded-aar\com.android.support\appcompat-v7\22.2.1\AndroidManifest.xml:22:5-20
MERGED from [com.android.support:support-v4:22.2.1] C:\Users\JCR\AndroidStudioProjects\AndroidPermissionManager\app\build\intermediates\exploded-aar\com.android.support\support-v4\22.2.1\AndroidManifest.xml:22:5-20
MERGED from [com.android.support:support-v4:22.2.1] C:\Users\JCR\AndroidStudioProjects\AndroidPermissionManager\app\build\intermediates\exploded-aar\com.android.support\support-v4\22.2.1\AndroidManifest.xml:22:5-20
	android:label
		ADDED from C:\Users\JCR\AndroidStudioProjects\AndroidPermissionManager\app\src\main\AndroidManifest.xml:15:9-41
	android:allowBackup
		ADDED from C:\Users\JCR\AndroidStudioProjects\AndroidPermissionManager\app\src\main\AndroidManifest.xml:13:9-35
	android:icon
		ADDED from C:\Users\JCR\AndroidStudioProjects\AndroidPermissionManager\app\src\main\AndroidManifest.xml:14:9-51
	android:theme
		ADDED from C:\Users\JCR\AndroidStudioProjects\AndroidPermissionManager\app\src\main\AndroidManifest.xml:16:9-40
activity#com.example.androidpermissionmanager.AppDisplayLayout
ADDED from C:\Users\JCR\AndroidStudioProjects\AndroidPermissionManager\app\src\main\AndroidManifest.xml:17:9-25:20
	android:label
		ADDED from C:\Users\JCR\AndroidStudioProjects\AndroidPermissionManager\app\src\main\AndroidManifest.xml:19:13-45
	android:name
		ADDED from C:\Users\JCR\AndroidStudioProjects\AndroidPermissionManager\app\src\main\AndroidManifest.xml:18:13-45
intent-filter#android.intent.action.MAIN+android.intent.category.LAUNCHER
ADDED from C:\Users\JCR\AndroidStudioProjects\AndroidPermissionManager\app\src\main\AndroidManifest.xml:20:13-24:29
action#android.intent.action.MAIN
ADDED from C:\Users\JCR\AndroidStudioProjects\AndroidPermissionManager\app\src\main\AndroidManifest.xml:21:17-69
	android:name
		ADDED from C:\Users\JCR\AndroidStudioProjects\AndroidPermissionManager\app\src\main\AndroidManifest.xml:21:25-66
category#android.intent.category.LAUNCHER
ADDED from C:\Users\JCR\AndroidStudioProjects\AndroidPermissionManager\app\src\main\AndroidManifest.xml:23:17-77
	android:name
		ADDED from C:\Users\JCR\AndroidStudioProjects\AndroidPermissionManager\app\src\main\AndroidManifest.xml:23:27-74
activity#com.example.androidpermissionmanager.ViewAppPermissions
ADDED from C:\Users\JCR\AndroidStudioProjects\AndroidPermissionManager\app\src\main\AndroidManifest.xml:26:9-29:20
	android:label
		ADDED from C:\Users\JCR\AndroidStudioProjects\AndroidPermissionManager\app\src\main\AndroidManifest.xml:28:13-45
	android:name
		ADDED from C:\Users\JCR\AndroidStudioProjects\AndroidPermissionManager\app\src\main\AndroidManifest.xml:27:13-47
